{
    "function_code": "F10000044",
    "no_db_flag": "",
    "no_extra_xml_flag": "",
    "index_1": "system",
    "index_2": "type",
    "index_3": "action",
    "index_4": "status",
    "index_5": "vessel",
    "index_6": "date_start",
    "index_7": "date_end",
    "index_8": "doc_no",
    "index_9": "create_by",
    "index_10": "tc",
    "index_11": "remark",
    "index_12": "",
    "index_13": "",
    "index_14": "",
    "index_15": "",
    "index_16": "",
    "index_17": "",
    "index_18": "",
    "index_19": "",
    "index_20": "",
    "state_flows": {
        "START": {
            "state_name": "START",
            "class_name": "",
            "no_activity_flag": "",
            "no_report_flag": "",
            "downstream_api_code": "",
            "link_flows": {
                "*|*": {
                    "next_state_name": "CPAIApprovalFormVerifyRequireInputState",
                    "state_action": "",
                    "set_return_code": ""
                }
            }
        },
        "CPAIApprovalFormVerifyRequireInputState": {
            "state_name": "CPAIApprovalFormVerifyRequireInputState",
            "class_name": "ProjectCPAIEngine|Flow.F10000044.CPAIApprovalFormVerifyRequireInputState",
            "no_activity_flag": "N",
            "no_report_flag": "N",
            "downstream_api_code": "",
            "link_flows": {
                "1|CPAI": {
                    "next_state_name": "EngineAuthenChannelState",
                    "state_action": "",
                    "set_return_code": ""
                },
                "*|*": {
                    "next_state_name": "_END|FAIL",
                    "state_action": "",
                    "set_return_code": ""
                }
            }
        },
        "EngineAuthenChannelState": {
            "state_name": "EngineAuthenChannelState",
            "class_name": "com.pttict.functioncommon|business.EngineAuthenChannelState",
            "no_activity_flag": "N",
            "no_report_flag": "N",
            "downstream_api_code": "",
            "link_flows": {
                "1|ENGINE": {
                    "next_state_name": "CPAIApprovalFormCheckStatusInitState",
                    "state_action": "",
                    "set_return_code": ""
                },
                "*|*": {
                    "next_state_name": "_END|FAIL",
                    "state_action": "",
                    "set_return_code": ""
                }
            }
        },
        "CPAIApprovalFormCheckStatusInitState": {
            "state_name": "CPAIApprovalFormCheckStatusInitState",
            "class_name": "ProjectCPAIEngine|Flow.F10000044.CPAIApprovalFormCheckStatusInitState",
            "no_activity_flag": "N",
            "no_report_flag": "N",
            "downstream_api_code": "",
            "link_flows": {
                "1|CPAI": {
                    "next_state_name": "CPAIApprovalFormInitStatusState",
                    "state_action": "",
                    "set_return_code": ""
                },
                "*|*": {
                    "next_state_name": "_END|FAIL",
                    "state_action": "",
                    "set_return_code": ""
                }
            }
        },
        "CPAIApprovalFormInitStatusState": {
            "state_name": "CPAIApprovalFormInitStatusState",
            "class_name": "ProjectCPAIEngine|Flow.F10000044.CPAIApprovalFormInitStatusState",
            "no_activity_flag": "N",
            "no_report_flag": "N",
            "downstream_api_code": "",
            "link_flows": {
                "1|CPAI": {
                    "next_state_name": "CPAIApprovalFormCreateDocNoState",
                    "state_action": "",
                    "set_return_code": ""
                },
                "*|*": {
                    "next_state_name": "_END|FAIL",
                    "state_action": "",
                    "set_return_code": ""
                }
            }
        },






        "CPAIApprovalFormCreateDocNoState": {
            "state_name": "CPAIApprovalFormCreateDocNoState",
            "class_name": "ProjectCPAIEngine|Flow.F10000044.CPAIApprovalFormCreateDocNoState",
            "no_activity_flag": "N",
            "no_report_flag": "N",
            "downstream_api_code": "",
            "link_flows": {
                "1|CPAI": {
                    "next_state_name": "CPAIApprovalFormUpdateDataState",
                    "state_action": "",
                    "set_return_code": ""
                },
                "*|*": {
                    "next_state_name": "_END|FAIL",
                    "state_action": "",
                    "set_return_code": ""
                }
            }
        },
        "CPAIApprovalFormUpdateDataState": {
            "state_name": "CPAIApprovalFormUpdateDataState",
            "class_name": "ProjectCPAIEngine|Flow.F10000044.CPAIApprovalFormUpdateDataState",
            "no_activity_flag": "N",
            "no_report_flag": "N",
            "downstream_api_code": "",
            "link_flows": {
                "1|CPAI": {
                    "next_state_name": "CPAIApprovalFormMaintainDBState",
                    "state_action": "",
                    "set_return_code": ""
                },
                "*|*": {
                    "next_state_name": "_END|FAIL",
                    "state_action": "",
                    "set_return_code": ""
                }
            }
        },
        "CPAIApprovalFormMaintainDBState": {
            "state_name": "CPAIApprovalFormMaintainDBState",
            "class_name": "ProjectCPAIEngine|Flow.F10000044.CPAIApprovalFormMaintainDBState",
            "no_activity_flag": "N",
            "no_report_flag": "N",
            "downstream_api_code": "",
            "link_flows": {
                "*|*": {
                    "next_state_name": "_STOP|#WAITING_APPROVE|CPAIApprovalFormVerifyRequireInputContinueState",
                    "state_action": "",
                    "set_return_code": ""
                }
            }
        },
        "CPAIApprovalFormVerifyRequireInputContinueState": {
            "state_name": "CPAIApprovalFormVerifyRequireInputContinueState",
            "class_name": "ProjectCPAIEngine|Flow.F10000044.CPAIApprovalFormVerifyRequireInputContinueState",
            "no_activity_flag": "N",
            "no_report_flag": "N",
            "downstream_api_code": "",
            "link_flows": {
                "1|CPAI": {
                    "next_state_name": "CPAIApprovalFormCheckStatusState",
                    "state_action": "",
                    "set_return_code": ""
                },
                "*|*": {
                    "next_state_name": "_STOP|#WAITING_APPROVE|CPAIApprovalFormVerifyRequireInputContinueState",
                    "state_action": "",
                    "set_return_code": ""
                }
            }
        },
        "CPAIApprovalFormCheckStatusState": {
            "state_name": "CPAIApprovalFormCheckStatusState",
            "class_name": "ProjectCPAIEngine|Flow.F10000044.CPAIApprovalFormCheckStatusState",
            "no_activity_flag": "N",
            "no_report_flag": "N",
            "downstream_api_code": "",
            "link_flows": {
                "1|CPAI": {
                    "next_state_name": "CPAIApprovalFormUpdateDataContinueState",
                    "state_action": "",
                    "set_return_code": ""
                },
                "*|*": {
                    "next_state_name": "_STOP|#WAITING_APPROVE|CPAIApprovalFormVerifyRequireInputContinueState",
                    "state_action": "",
                    "set_return_code": ""
                }
            }
        },
        "CPAIApprovalFormUpdateDataContinueState": {
            "state_name": "CPAIApprovalFormUpdateDataState",
            "class_name": "ProjectCPAIEngine|Flow.F10000044.CPAIApprovalFormUpdateDataState",
            "no_activity_flag": "N",
            "no_report_flag": "N",
            "downstream_api_code": "",
            "link_flows": {
                "1|CPAI": {
                    "next_state_name": "CPAIApprovalFormRootwayActionState",
                    "state_action": "",
                    "set_return_code": ""
                },
                "*|*": {
                    "next_state_name": "_STOP|#WAITING_APPROVE|CPAIApprovalFormVerifyRequireInputContinueState",
                    "state_action": "",
                    "set_return_code": ""
                }
            }
        },
        "CPAIApprovalFormRootwayActionState": {
            "state_name": "CPAIApprovalFormRootwayActionState",
            "class_name": "ProjectCPAIEngine|Flow.F10000044.CPAIApprovalFormRootwayActionState",
            "no_activity_flag": "N",
            "no_report_flag": "N",
            "downstream_api_code": "",
            "link_flows": {
                "10000078|CPAI": {
                    "next_state_name": "CPAIApprovalFormMaintainDBState",
                    "state_action": "",
                    "set_return_code": ""
                },
                "10000022|CPAI": {
                    "next_state_name": "CPAISendMailApprovalFormCancelState",
                    "state_action": "_SLEEP|0",
                    "set_return_code": ""
                },
                "10000023|CPAI": {
                    "next_state_name": "CPAISendMailApprovalFormApproveState",
                    "state_action": "_SLEEP|0",
                    "set_return_code": ""
                },
                "99990|CPAI": {
                    "next_state_name": "CPAIVerifyRequireInputAttachState",
                    "state_action": "",
                    "set_return_code": ""
                },
                "10000021|CPAI": {
                    "next_state_name": "CPAIApprovalFormMaintainDBState",
                    "state_action": "",
                    "set_return_code": ""
                },
                "99991|CPAI": {
                    "next_state_name": "CPAISendMailApprovalFormApproveState",
                    "state_action": "_SLEEP|0",
                    "set_return_code": ""
                },
                "10000058|CPAI": {
                    "next_state_name": "CPAISendMailApprovalFormApproveState",
                    "state_action": "_SLEEP|0",
                    "set_return_code": ""
                },
                "10000020|CPAI": {
                    "next_state_name": "CPAISendMailApprovalFormApproveState",
                    "state_action": "_SLEEP|0",
                    "set_return_code": ""
                },
                "*|*": {
                    "next_state_name": "_STOP|#WAITING_APPROVE|CPAIApprovalFormVerifyRequireInputContinueState",
                    "state_action": "",
                    "set_return_code": ""
                }
            }
        },

        "CPAISendMailApprovalFormCancelState": {
            "state_name": "CPAISendMailApprovalFormCancelState",
            "class_name": "ProjectCPAIEngine|Flow.F10000044.CPAIApprovalFormSendMailApproveState",
            "no_activity_flag": "N",
            "no_report_flag": "N",
            "downstream_api_code": "MAIL_EWM",
            "link_flows": {
                "*|*": {
                    "next_state_name": "CPAIApprovalFormMaintainDBCancelState",
                    "state_action": "",
                    "set_return_code": ""
                }
            }
        },
        "CPAISendMailApprovalFormApproveState": {
            "state_name": "CPAISendMailApprovalFormApproveState",
            "class_name": "ProjectCPAIEngine|Flow.F10000044.CPAIApprovalFormSendMailApproveState",
            "no_activity_flag": "N",
            "no_report_flag": "N",
            "downstream_api_code": "MAIL_EWM",
            "link_flows": {
                "*|*": {
                    "next_state_name": "CPAIApprovalFormSendNotiApproveState",
                    "state_action": "",
                    "set_return_code": ""
                }
            }
        },
        "CPAISendMailApprovalFormState": {
            "state_name": "CPAISendMailApprovalFormState",
            "class_name": "ProjectCPAIEngine|Flow.F10000044.CPAIApprovalFormSendMailApproveState",
            "no_activity_flag": "N",
            "no_report_flag": "N",
            "downstream_api_code": "MAIL_EWM",
            "link_flows": {
                "*|*": {
                    "next_state_name": "CPAIApprovalFormSendNotiApproveState",
                    "state_action": "",
                    "set_return_code": ""
                }
            }
        },
        "CPAIVerifyRequireInputAttachState": {
            "state_name": "CPAIVerifyRequireInputAttachState",
            "class_name": "ProjectCPAIEngine|Flow.F10000044.CPAIVerifyRequireInputAttachState",
            "no_activity_flag": "N",
            "no_report_flag": "N",
            "downstream_api_code": "",
            "link_flows": {
                "1|CPAI": {
                    "next_state_name": "CPAIApprovalFormMaintainDBState",
                    "state_action": "",
                    "set_return_code": ""
                },
                "*|*": {
                    "next_state_name": "_STOP|#WAITING_APPROVE|CPAIVerifyApprovalFormRequireInputContinueState",
                    "state_action": "",
                    "set_return_code": ""
                }
            }
        },
        "CPAIApprovalFormSendNotiApproveState": {
            "state_name": "CPAIApprovalFormSendNotiApproveState",
            "class_name": "ProjectCPAIEngine|Flow.F10000044.CPAIApprovalFormSendNotiApproveState",
            "no_activity_flag": "N",
            "no_report_flag": "N",
            "downstream_api_code": "NOTI_FCM",
            "link_flows": {
                "*|*": {
                    "next_state_name": "CPAIApprovalFormMaintainDBCancelState",
                    "state_action": "",
                    "set_return_code": ""
                }
            }
        },
        "CPAIApprovalFormMaintainDBContinueState": {
            "state_name": "CPAIApprovalFormMaintainDBState",
            "class_name": "ProjectCPAIEngine|Flow.F10000044.CPAIApprovalFormMaintainDBState",
            "no_activity_flag": "N",
            "no_report_flag": "N",
            "downstream_api_code": "",
            "link_flows": {
                "*|*": {
                    "next_state_name": "_STOP|#WAITING_APPROVE|CPAIApprovalFormVerifyRequireInputContinueState",
                    "state_action": "",
                    "set_return_code": ""
                }
            }
        },


        "CPAIApprovalFormMaintainDBCancelState": {
            "state_name": "CPAIApprovalFormMaintainDBState",
            "class_name": "ProjectCPAIEngine|Flow.F10000044.CPAIApprovalFormMaintainDBState",
            "no_activity_flag": "N",
            "no_report_flag": "N",
            "downstream_api_code": "",
            "link_flows": {
                "*|*": {
                    "next_state_name": "_END|CANCEL",
                    "state_action": "",
                    "set_return_code": ""
                }
            }
        }
    }
}
