{
    "PAFTransaction": [
        {
            "Transaction_id_Encrypted": null,
            "Req_transaction_id_Encrypted": null,
            "Purchase_no_Encrypted": null,
            "reason_Encrypted": null,
            "for_company": "TOP",
            "awarded": null,
            "awarded_summary": "",
            "template_id": null,
            "function_id": "44",
            "function_desc": "Uncaught exception",
            "result_namespace": "CPAI",
            "result_status": "FAIL",
            "result_code": "10000001",
            "result_desc": "Uncaught exception",
            "req_transaction_id": "565b30a329c441758d8168a8dd166a14",
            "transaction_id": "201709081021290315678",
            "response_message": "An error occurred on the system, Please contact the system administrator.",
            "system": "PAF",
            "type": "OTHER",
            "action": null,
            "status": "DRAFT",
            "status_description": null,
            "status_tracking": null,
            "date_purchase": null,
            "vessel_id": null,
            "vessel": null,
            "supplying_location": null,
            "purchase_no": "PAF-1709-0053",
            "products": null,
            "volumes": null,
            "create_by": null,
            "update_date": null,
            "supplier_id": null,
            "supplier": null,
            "supplier_color": null,
            "cust_id": null,
            "cust_name": null,
            "flat_rate": null,
            "laycan_from": null,
            "laycan_to": null,
            "owner": null,
            "min_load": null,
            "trip_no": null,
            "reason": null,
            "remark": null,
            "date_start": null,
            "date_end": null,
            "others_cost_surveyor": null,
            "others_cost_barge": null,
            "final_price": null,
            "total_price": null,
            "charterer": null,
            "charterer_name": null,
            "cargo": null,
            "cargo_name": null,
            "broker": null,
            "broker_name": null,
            "load_port": null,
            "load_port_name": null,
            "discharge_port": null,
            "discharge_port_name": null,
            "laytime": null,
            "date_fixture": null,
            "target_days": null,
            "avg_ws": null,
            "ws_saving": null,
            "saving_in": null,
            "top_fixture_value": null,
            "laycan_load_from": null,
            "laycan_load_to": null,
            "charter_in": null,
            "broker_id": null,
            "dem": null,
            "extra_cost": null,
            "date_from": null,
            "date_to": null,
            "benefit_day": null,
            "benefit_voy": null,
            "tce_day": null,
            "month": null,
            "td": null,
            "tc_rate": null,
            "delivery_date_from": null,
            "delivery_date_to": null,
            "unit_price_type": null,
            "unit_price_value": null,
            "unit_price_order": null,
            "currency_symbol": null,
            "exten_cost": null,
            "est_freight": null,
            "feed_stock": null,
            "margin": null,
            "product_name": null,
            "supplier_name": null,
            "incoterm": null,
            "formula_p": null,
            "purchase_p": null,
            "market_p": null,
            "lp_p": null,
            "discharging_period": null,
            "loading_period": null,
            "maximum_buying_price": null,
            "lp_result": null,
            "tc": null,
            "vessel_activity": null,
            "assay_ref": null,
            "assay_date": null,
            "origin": null,
            "categories": null,
            "kerogen": null,
            "characteristic": null,
            "maturity": null,
            "density": null,
            "total_acid_number": null,
            "total_sulphur": null,
            "final_cam_file": null,
            "draft_cam_file": null,
            "assay_file": null,
            "assay_from": null,
            "support_doc_file": null,
            "draft_cam_status": null,
            "final_cam_status": null,
            "expert_units": null,
            "requester_name": null,
            "note": null,
            "created_by": "SALIN",
            "created_date": "08-Mar-2017 00:00",
            "updated_by": null,
            "updated_date": "",
            "experts_support_doc_file": null,
            "deal_date": null,
            "deal_no": null,
            "pre_deal_no": null,
            "ticket_no": null,
            "contact_no": null,
            "ticket_date": null,
            "deal_type": null,
            "hedg_type": null,
            "trade_for": null,
            "tool": null,
            "counter_party": null,
            "underlying": null,
            "underlying_vs": null,
            "underlying_name": null,
            "seller": null,
            "buyer": null,
            "price": null,
            "volume_month": null,
            "template_name": "",
            "volume_kbbl_min": null,
            "volume_kbbl_max": null,
            "volume_kt_min": null,
            "volume_kt_max": null,
            "user_group": null,
            "user_group_delegate": null,
            "ws": null,
            "route": null,
            "no_total_ex": null,
            "total_ex": null,
            "net_benefit": null,
            "tpc_month": null,
            "tpc_year": null,
            "sc_status": null,
            "tn_status": null
        },
        {
            "Transaction_id_Encrypted": null,
            "Req_transaction_id_Encrypted": null,
            "Purchase_no_Encrypted": null,
            "reason_Encrypted": null,
            "for_company": "TOP",
            "awarded": null,
            "awarded_summary": "",
            "template_id": null,
            "function_id": "44",
            "function_desc": "Uncaught exception",
            "result_namespace": "CPAI",
            "result_status": "FAIL",
            "result_code": "10000001",
            "result_desc": "Uncaught exception",
            "req_transaction_id": "e707a32db799442ba61d152d723ef9df",
            "transaction_id": "201709081130060315744",
            "response_message": "An error occurred on the system, Please contact the system administrator.",
            "system": "PAF",
            "type": "OTHER",
            "action": null,
            "status": "DRAFT",
            "status_description": null,
            "status_tracking": null,
            "date_purchase": null,
            "vessel_id": null,
            "vessel": null,
            "supplying_location": null,
            "purchase_no": "PAF-1709-0054",
            "products": null,
            "volumes": null,
            "create_by": null,
            "update_date": null,
            "supplier_id": null,
            "supplier": null,
            "supplier_color": null,
            "cust_id": null,
            "cust_name": null,
            "flat_rate": null,
            "laycan_from": null,
            "laycan_to": null,
            "owner": null,
            "min_load": null,
            "trip_no": null,
            "reason": null,
            "remark": null,
            "date_start": null,
            "date_end": null,
            "others_cost_surveyor": null,
            "others_cost_barge": null,
            "final_price": null,
            "total_price": null,
            "charterer": null,
            "charterer_name": null,
            "cargo": null,
            "cargo_name": null,
            "broker": null,
            "broker_name": null,
            "load_port": null,
            "load_port_name": null,
            "discharge_port": null,
            "discharge_port_name": null,
            "laytime": null,
            "date_fixture": null,
            "target_days": null,
            "avg_ws": null,
            "ws_saving": null,
            "saving_in": null,
            "top_fixture_value": null,
            "laycan_load_from": null,
            "laycan_load_to": null,
            "charter_in": null,
            "broker_id": null,
            "dem": null,
            "extra_cost": null,
            "date_from": null,
            "date_to": null,
            "benefit_day": null,
            "benefit_voy": null,
            "tce_day": null,
            "month": null,
            "td": null,
            "tc_rate": null,
            "delivery_date_from": null,
            "delivery_date_to": null,
            "unit_price_type": null,
            "unit_price_value": null,
            "unit_price_order": null,
            "currency_symbol": null,
            "exten_cost": null,
            "est_freight": null,
            "feed_stock": null,
            "margin": null,
            "product_name": null,
            "supplier_name": null,
            "incoterm": null,
            "formula_p": null,
            "purchase_p": null,
            "market_p": null,
            "lp_p": null,
            "discharging_period": null,
            "loading_period": null,
            "maximum_buying_price": null,
            "lp_result": null,
            "tc": null,
            "vessel_activity": null,
            "assay_ref": null,
            "assay_date": null,
            "origin": null,
            "categories": null,
            "kerogen": null,
            "characteristic": null,
            "maturity": null,
            "density": null,
            "total_acid_number": null,
            "total_sulphur": null,
            "final_cam_file": null,
            "draft_cam_file": null,
            "assay_file": null,
            "assay_from": null,
            "support_doc_file": null,
            "draft_cam_status": null,
            "final_cam_status": null,
            "expert_units": null,
            "requester_name": null,
            "note": null,
            "created_by": "SALIN",
            "created_date": "08-Mar-2017 00:00",
            "updated_by": null,
            "updated_date": "",
            "experts_support_doc_file": null,
            "deal_date": null,
            "deal_no": null,
            "pre_deal_no": null,
            "ticket_no": null,
            "contact_no": null,
            "ticket_date": null,
            "deal_type": null,
            "hedg_type": null,
            "trade_for": null,
            "tool": null,
            "counter_party": null,
            "underlying": null,
            "underlying_vs": null,
            "underlying_name": null,
            "seller": null,
            "buyer": null,
            "price": null,
            "volume_month": null,
            "template_name": "",
            "volume_kbbl_min": null,
            "volume_kbbl_max": null,
            "volume_kt_min": null,
            "volume_kt_max": null,
            "user_group": null,
            "user_group_delegate": null,
            "ws": null,
            "route": null,
            "no_total_ex": null,
            "total_ex": null,
            "net_benefit": null,
            "tpc_month": null,
            "tpc_year": null,
            "sc_status": null,
            "tn_status": null
        }
    ]
}
